The tidyverse for Machine Learning
…
```{r
train_test <- function(data){
  data %>% 
    mutate(base = ifelse(runif(n()) > 0.75, "test", "train")) %>% 
    split(.$base) %>% 
    purrr::map(~select(.x, -.data[["base"]])) }

data_tibble <- data_tibble %>% 
*  mutate(train_test = purrr::map(data, train_test))
print(data_tibble, n = 3)
```

```
# A tibble: 10 x 3
  index data                  train_test      
  <int> <list>                <list>          
1     1 <tibble [5,698 × 50]> <named list [2]>
2     2 <tibble [5,698 × 50]> <named list [2]>
3     3 <tibble [5,698 × 50]> <named list [2]>
# … with 7 more rows
```
…
---

Adding the models to our main `tibble`:

```{r
data_tibble <- data_tibble %>% 
*  crossing(models) %>% 
  arrange(model)

data_tibble
```

```
# A tibble: 50 x 5
   index data                  train_test       model   parameters      
   <int> <list>                <list>           <chr>   <list>          
 1     1 <tibble [5,698 × 50]> <named list [2]> bagging <named list [3]>
 2     2 <tibble [5,698 × 50]> <named list [2]> bagging <named list [3]>
 3     3 <tibble [5,698 × 50]> <named list [2]> bagging <named list [3]>
 4     4 <tibble [5,698 × 50]> <named list [2]> bagging <named list [3]>
 5     5 <tibble [5,698 × 50]> <named list [2]> bagging <named list [3]>
 6     6 <tibble [5,698 × 50]> <named list [2]> bagging <named list [3]>
 7     7 <tibble [5,698 × 50]> <named list [2]> bagging <named list [3]>
 8     8 <tibble [5,698 × 50]> <named list [2]> bagging <named list [3]>
 9     9 <tibble [5,698 × 50]> <named list [2]> bagging <named list [3]>
10    10 <tibble [5,698 × 50]> <named list [2]> bagging <named list [3]>
# … with 40 more rows
```
…
There are many models to run, so now you go grab a coffee, 
read a magazine...

```{r
training_models <- data_tibble %>% 
  mutate(
    full_parameters = 
*      map2(parameters, map(train_test, "train"), ~list_modify(.x, train = .y)),
*    train_model = invoke_map(modelling, full_parameters))

print(training_models, n = 5)
```

```
# A tibble: 50 x 7
  index data      train_test  model parameters  full_parameters train_model
  <int> <list>    <list>      <chr> <list>      <list>          <list>     
1     1 <tibble … <named lis… bagg… <named lis… <named list [4… <ranger>   
2     2 <tibble … <named lis… bagg… <named lis… <named list [4… <ranger>   
3     3 <tibble … <named lis… bagg… <named lis… <named list [4… <ranger>   
4     4 <tibble … <named lis… bagg… <named lis… <named list [4… <ranger>   
5     5 <tibble … <named lis… bagg… <named lis… <named list [4… <ranger>   
# … with 45 more rows
```
…
---

All the elements in only one object!

```r
results 
```

```
# A tibble: 50 x 10
   index data  train_test model parameters full_parameters train_model
   <int> <lis> <list>     <chr> <list>     <list>          <list>     
 1     1 <tib… <named li… bagg… <named li… <named list [4… <ranger>   
 2     2 <tib… <named li… bagg… <named li… <named list [4… <ranger>   
 3     3 <tib… <named li… bagg… <named li… <named list [4… <ranger>   
 4     4 <tib… <named li… bagg… <named li… <named list [4… <ranger>   
 5     5 <tib… <named li… bagg… <named li… <named list [4… <ranger>   
 6     6 <tib… <named li… bagg… <named li… <named list [4… <ranger>   
 7     7 <tib… <named li… bagg… <named li… <named list [4… <ranger>   
 8     8 <tib… <named li… bagg… <named li… <named list [4… <ranger>   
 9     9 <tib… <named li… bagg… <named li… <named list [4… <ranger>   
10    10 <tib… <named li… bagg… <named li… <named list [4… <ranger>   
# … with 40 more rows, and 3 more variables: rmse <dbl>,
#   number_variables <int>, rsquared <dbl>
```
…
