tidyverse para Aprendizado de Máquina
…
---

Adicionado os modelos à nossa `tibble` principal:

```{r
data_tibble <- data_tibble %>% 
*  crossing(modelos) %>% 
  arrange(modelo)

data_tibble
```

```
# A tibble: 25 x 5
   index data                  treino_teste     modelo  parametros      
   <int> <list>                <list>           <chr>   <list>          
 1     1 <tibble [5,698 × 50]> <named list [2]> arvores <named list [3]>
 2     2 <tibble [5,698 × 50]> <named list [2]> arvores <named list [3]>
 3     3 <tibble [5,698 × 50]> <named list [2]> arvores <named list [3]>
 4     4 <tibble [5,698 × 50]> <named list [2]> arvores <named list [3]>
 5     5 <tibble [5,698 × 50]> <named list [2]> arvores <named list [3]>
 6     1 <tibble [5,698 × 50]> <named list [2]> bagging <named list [3]>
 7     2 <tibble [5,698 × 50]> <named list [2]> bagging <named list [3]>
 8     3 <tibble [5,698 × 50]> <named list [2]> bagging <named list [3]>
 9     4 <tibble [5,698 × 50]> <named list [2]> bagging <named list [3]>
10     5 <tibble [5,698 × 50]> <named list [2]> bagging <named list [3]>
# … with 15 more rows
```
…
```{r
treinando_modelos <- data_tibble %>% 
  mutate(
    full_parametros = 
*      map2(parametros, map(treino_teste, "treino"), ~list_modify(.x, treino = .y)),*
*    modelo_treinado = invoke_map(modelagem, full_parametros))*

print(treinando_modelos, n = 5)
```

```
# A tibble: 25 x 7
  index data  treino_teste modelo parametros full_parametros
  <int> <lis> <list>       <chr>  <list>     <list>         
1     1 <tib… <named list… arvor… <named li… <named list [4…
2     2 <tib… <named list… arvor… <named li… <named list [4…
3     3 <tib… <named list… arvor… <named li… <named list [4…
4     4 <tib… <named list… arvor… <named li… <named list [4…
5     5 <tib… <named list… arvor… <named li… <named list [4…
# … with 20 more rows, and 1 more variable: modelo_treinado <list>
```
…
---

Todos os elementos em um objeto só!

```r
resultados 
```

```
# A tibble: 25 x 10
   index data  treino_teste modelo parametros full_parametros
   <int> <lis> <list>       <chr>  <list>     <list>         
 1     1 <tib… <named list… arvor… <named li… <named list [4…
 2     2 <tib… <named list… arvor… <named li… <named list [4…
 3     3 <tib… <named list… arvor… <named li… <named list [4…
 4     4 <tib… <named list… arvor… <named li… <named list [4…
 5     5 <tib… <named list… arvor… <named li… <named list [4…
 6     1 <tib… <named list… baggi… <named li… <named list [4…
 7     2 <tib… <named list… baggi… <named li… <named list [4…
 8     3 <tib… <named list… baggi… <named li… <named list [4…
 9     4 <tib… <named list… baggi… <named li… <named list [4…
10     5 <tib… <named list… baggi… <named li… <named list [4…
# … with 15 more rows, and 4 more variables: modelo_treinado <list>,
#   eqm <dbl>, numero_variaveis <int>, rsquared <dbl>
```
…
